﻿  Creating makefile for hot reloading GameDemoEditor (working set of source files changed)
  Compiling game modules for hot reload
  Parsing headers for GameDemoEditor
    Running UnrealHeaderTool "C:\Users\Tong\Desktop\UE4 game demo\GameDemo\GameDemo.uproject" "C:\Users\Tong\Desktop\UE4 game demo\GameDemo\Intermediate\Build\Win64\GameDemoEditor\Development\GameDemoEditor.uhtmanifest" -LogCmds="loginit warning, logexit warning, logdatabase error" -Unattended -WarningsAsErrors -installed
  Reflection code generated for GameDemoEditor in 3.8495595 seconds
  Performing 11 actions (4 in parallel)
  GameDemo.generated.cpp
  WeaponBase.cpp
  RifleBase.cpp
  RocketLauncherBase.cpp
C:\Users\Tong\Desktop\UE4 game demo\GameDemo\Source\GameDemo\WeaponBase.cpp(125): warning C4996: 'UGameplayStatics::PlaySoundAttached': PlaySoundAttached has been renamed SpawnSoundAttached Please update your code to the new API before upgrading to the next release, otherwise your project will no longer compile.
  M:\Epic Games\4.12\Engine\Source\Runtime\Engine\Classes\Kismet/GameplayStatics.h(437): note: see declaration of 'UGameplayStatics::PlaySoundAttached'
  MyPlayer.cpp
  PickUpBase.cpp
C:\Users\Tong\Desktop\UE4 game demo\GameDemo\Source\GameDemo\PickUpBase.cpp(18): warning C4996: 'USceneComponent::AttachTo': This function is deprecated, please use AttachToComponent instead. Please update your code to the new API before upgrading to the next release, otherwise your project will no longer compile.
  M:\Epic Games\4.12\Engine\Source\Runtime\Engine\Classes\Components/SceneComponent.h(607): note: see declaration of 'USceneComponent::AttachTo'
C:\Users\Tong\Desktop\UE4 game demo\GameDemo\Source\GameDemo\MyPlayer.cpp(16): warning C4996: 'USceneComponent::AttachTo': This function is deprecated, please use AttachToComponent instead. Please update your code to the new API before upgrading to the next release, otherwise your project will no longer compile.
  M:\Epic Games\4.12\Engine\Source\Runtime\Engine\Classes\Components/SceneComponent.h(607): note: see declaration of 'USceneComponent::AttachTo'
C:\Users\Tong\Desktop\UE4 game demo\GameDemo\Source\GameDemo\MyPlayer.cpp(17): warning C4996: 'USceneComponent::AttachTo': This function is deprecated, please use AttachToComponent instead. Please update your code to the new API before upgrading to the next release, otherwise your project will no longer compile.
  M:\Epic Games\4.12\Engine\Source\Runtime\Engine\Classes\Components/SceneComponent.h(607): note: see declaration of 'USceneComponent::AttachTo'
  LaserBase.cpp
C:\Users\Tong\Desktop\UE4 game demo\GameDemo\Source\GameDemo\MyPlayer.cpp(185): warning C4996: 'AActor::AttachRootComponentToActor': Please use AttachToActor. Please update your code to the new API before upgrading to the next release, otherwise your project will no longer compile.
  M:\Epic Games\4.12\Engine\Source\Runtime\Engine\Classes\GameFramework/Actor.h(1123): note: see declaration of 'AActor::AttachRootComponentToActor'
  InteractableActor.cpp
  AmmoPickUpBase.cpp
  MyHealthPickUp.cpp
  [11/11] Link UE4Editor-GameDemo-1260.dll
     Creating library C:\Users\Tong\Desktop\UE4 game demo\GameDemo\Intermediate\Build\Win64\UE4Editor\Development\UE4Editor-GameDemo-1260.lib and object C:\Users\Tong\Desktop\UE4 game demo\GameDemo\Intermediate\Build\Win64\UE4Editor\Development\UE4Editor-GameDemo-1260.exp
  Total build time: 17.00 seconds
